{
  "consumes": [
    "application/json",
    "multipart/form-data"
  ],
  "produces": [
    "application/json"
  ],
  "swagger": "2.0",
  "info": {
    "description": "Documentation of your project API.\n\nSchemes:\nhttp\nhttps",
    "title": "infoblog.",
    "version": "1.0.0"
  },
  "basePath": "/",
  "paths": {
    "/delete/{id}": {
      "post": {
        "tags": [
          "vacancy"
        ],
        "summary": "Deletes the vacancy for the selected id.",
        "operationId": "vacancyDelByIdRequest",
        "parameters": [
          {
            "type": "integer",
            "format": "int64",
            "x-go-name": "ID",
            "description": "Category of vacancy",
            "name": "id",
            "in": "path",
            "required": true
          }
        ],
        "responses": {
          "200": {
            "$ref": "#/responses/vacancyDelByIdResponse"
          },
          "400": {
            "description": " Bad request"
          },
          "500": {
            "description": " Internal server error"
          }
        }
      }
    },
    "/get/{id}": {
      "post": {
        "tags": [
          "vacancy"
        ],
        "summary": "Get the vacancy for the selected id.",
        "operationId": "vacancyGetByIdRequest",
        "parameters": [
          {
            "type": "integer",
            "format": "int64",
            "x-go-name": "ID",
            "description": "id of vacancy",
            "name": "id",
            "in": "path",
            "required": true
          }
        ],
        "responses": {
          "200": {
            "$ref": "#/responses/vacancyGetByIdResponse"
          },
          "400": {
            "description": " Bad request"
          },
          "500": {
            "description": " Internal server error"
          }
        }
      }
    },
    "/list": {
      "get": {
        "tags": [
          "vacancy"
        ],
        "summary": "List of all available vacancies.",
        "operationId": "vacanciesGetListRequest",
        "responses": {
          "200": {
            "$ref": "#/responses/vacanciesGetListResponse"
          },
          "400": {
            "description": " Bad request"
          },
          "500": {
            "description": " Internal server error"
          }
        }
      }
    },
    "/search/{category}": {
      "post": {
        "tags": [
          "vacancy"
        ],
        "summary": "Creates list of vacancy.",
        "operationId": "vacanciesSearchRequest",
        "parameters": [
          {
            "type": "string",
            "x-go-name": "Category",
            "description": "Category of vacancy",
            "name": "category",
            "in": "path",
            "required": true
          }
        ],
        "responses": {
          "200": {
            "$ref": "#/responses/vacanciesSearchResponse"
          },
          "400": {
            "description": " Bad request"
          },
          "500": {
            "description": " Internal server error"
          }
        }
      }
    }
  },
  "definitions": {
    "Vacancy": {
      "type": "object",
      "properties": {
        "@context": {
          "type": "string",
          "x-go-name": "Context"
        },
        "datePosted": {
          "type": "string",
          "x-go-name": "DatePosted"
        },
        "description": {
          "type": "string",
          "x-go-name": "Description"
        },
        "id": {
          "type": "integer",
          "format": "int64",
          "x-go-name": "ID"
        },
        "title": {
          "type": "string",
          "x-go-name": "Title"
        },
        "validThrough": {
          "type": "string",
          "x-go-name": "ValidThrough"
        }
      },
      "x-go-package": "gitlab.com/citaces/go-parser/models"
    }
  },
  "responses": {
    "vacanciesGetListResponse": {
      "description": "",
      "schema": {
        "type": "array",
        "items": {
          "$ref": "#/definitions/Vacancy"
        }
      }
    },
    "vacanciesSearchResponse": {
      "description": "",
      "headers": {
        "Status": {
          "type": "string"
        }
      }
    },
    "vacancyDelByIdResponse": {
      "description": ""
    },
    "vacancyGetByIdResponse": {
      "description": "",
      "schema": {
        "$ref": "#/definitions/Vacancy"
      }
    }
  },
  "securityDefinitions": {
    "Bearer": {
      "type": "apiKey",
      "name": "Authorization",
      "in": "header"
    }
  }
}